Kallisto Overlap Benchmarking
…
df.pseudo$origin <- factor(df.pseudo$origin, levels=c('proximal', 'distal'), ordered = TRUE)

df.pseudo <- df.pseudo %>% 
  complete(origin, result, distance, transcriptWidth, proximalCounts, 
           distalCounts, replicate, fill=list(counts=0))

print(df.pseudo)

## # A tibble: 20,160 x 8
##    origin result distance transcriptWidth proximalCounts distalCounts
##    <ord>  <chr>     <dbl>           <dbl>          <dbl>        <dbl>
##  1 proxi *            50             350             50           50
##  2 proxi *            50             350             50           50
##  3 proxi *            50             350             50           50
##  4 proxi *            50             350             50           50
##  5 proxi *            50             350             50           50
##  6 proxi *            50             350             50           50
##  7 proxi *            50             350             50           50
##  8 proxi *            50             350             50           50
##  9 proxi *            50             350             50           50
## 10 proxi *            50             350             50           50
## #  with 20,150 more rows, and 2 more variables: replicate <dbl>,
## #   counts <dbl>
…
df.quant$utr <- factor(df.quant$utr, levels=c('proximal', 'distal'), ordered = TRUE)

print(df.quant)

## # A tibble: 6,720 x 10
##    utr   counts distance transcriptWidth replicate proximalCounts
##    <ord>  <dbl>    <dbl>           <dbl>     <dbl>          <dbl>
##  1 dist   7.12       50             350         0             50
##  2 prox  81.9        50             350         0             50
##  3 dist   3.5        50             350         1             50
##  4 prox  87.5        50             350         1             50
##  5 dist   2.94       50             350         2             50
##  6 prox  88.1        50             350         2             50
##  7 dist   5.35       50             350         3             50
##  8 prox  85.6        50             350         3             50
##  9 dist   2.91       50             350         4             50
## 10 prox  90.1        50             350         4             50
## #  with 6,710 more rows, and 4 more variables: distalCounts <dbl>,
## #   counts.true <dbl>, error.abs <dbl>, error.rel <dbl>
…
